@startuml
namespace tourist-sites-la-paz {
    enum CustomerState {
        ACTIVATE
        DEACTIVATE
    }

    enum AgencyState {
        ACTIVATE
        DEACTIVATE
    }

    enum DocumentType {
        CI,
        PASSPORT,
        LSM,
        RUAT
    }

    class Customer {
        id: Long
        code: String
        name: String
        lastName: String
        documentType: DocumentType
        documentNumber: String
        email: String
        phoneNumber: String
        customerState: CustomerState
        isDeleted: Boolean
        createdDate: LocalDateTime
    }

    class Agency {
        id: Long
        name: String
        address: String
        logo: String
        phone: String
        agencyState: AgencyState
        isDeleted: Boolean
        createdDate: LocalDateTime
    }
}
@enduml